<?xml version="1.0" encoding="UTF-8" standalone="no"?>
<svg
   xmlns:dc="http://purl.org/dc/elements/1.1/"
   xmlns:cc="http://creativecommons.org/ns#"
   xmlns:rdf="http://www.w3.org/1999/02/22-rdf-syntax-ns#"
   xmlns:svg="http://www.w3.org/2000/svg"
   xmlns="http://www.w3.org/2000/svg"
   xmlns:sodipodi="http://sodipodi.sourceforge.net/DTD/sodipodi-0.dtd"
   xmlns:inkscape="http://www.inkscape.org/namespaces/inkscape"
   width="16"
   height="16"
   version="1.1"
   id="svg4"
   sodipodi:docname="rising-symbolic.svg"
   inkscape:version="1.0.1 (3bc2e813f5, 2020-09-07)">
  <metadata
     id="metadata10">
    <rdf:RDF>
      <cc:Work
         rdf:about="">
        <dc:format>image/svg+xml</dc:format>
        <dc:type
           rdf:resource="http://purl.org/dc/dcmitype/StillImage" />
        <dc:title></dc:title>
      </cc:Work>
    </rdf:RDF>
  </metadata>
  <defs
     id="defs8" />
  <sodipodi:namedview
     pagecolor="#ffffff"
     bordercolor="#666666"
     borderopacity="1"
     objecttolerance="10"
     gridtolerance="10"
     guidetolerance="10"
     inkscape:pageopacity="0"
     inkscape:pageshadow="2"
     inkscape:window-width="1943"
     inkscape:window-height="1169"
     id="namedview6"
     showgrid="false"
     inkscape:zoom="17.545087"
     inkscape:cx="7.2880669"
     inkscape:cy="12.711381"
     inkscape:window-x="26"
     inkscape:window-y="23"
     inkscape:window-maximized="0"
     inkscape:current-layer="svg4" />
  <path
     id="path2"
     style="line-height:normal;text-indent:0;text-align:start;text-decoration:none;text-decoration-line:none;text-decoration-style:solid;text-decoration-color:#000000;text-transform:none;white-space:normal;fill:#000000"
     d="M 10.318359 2.6367188 C 10.043294 2.6416686 9.8090469 2.7495469 9.5898438 2.96875 L 8.8808594 3.6757812 L 9.5878906 4.3808594 C 9.7696171 4.5625859 10.052656 4.6630186 10.316406 4.6679688 L 12.130859 4.6699219 L 8.2636719 8.5351562 L 6.0507812 6.3222656 L 4.6367188 7.7363281 L 0.42578125 11.949219 L 1.8398438 13.363281 L 6.0507812 9.1503906 L 8.2636719 11.363281 L 9.6777344 9.9492188 L 13.542969 6.0859375 L 13.542969 7.8945312 C 13.547969 8.1582806 13.649597 8.442566 13.832031 8.625 L 14.539062 9.3320312 L 15.242188 8.625 C 15.461391 8.4057969 15.568518 8.1708401 15.574219 7.8964844 L 15.533203 2.6816406 L 10.318359 2.6367188 z " />
</svg>
